{"failedCount":0,"prefixedPath":"src\/test\/java\/tests\/Features\/FirstTest.feature","packageQualifiedName":"src.test.java.tests.Features.FirstTest","loopIndex":-1,"relativePath":"src\/test\/java\/tests\/Features\/FirstTest.feature","scenarioResults":[{"sectionIndex":0,"stepResults":[{"result":{"nanos":163805500,"millis":163.8055,"status":"passed"},"step":{"line":5,"prefix":"Given","index":0,"text":"url \"https:\/\/reqres.in\/api\/users?page=2\""}},{"result":{"nanos":901614100,"millis":901.6141,"status":"passed"},"step":{"line":6,"prefix":"When","index":1,"text":"method GET"},"stepLog":"16:39:43.179 request:\n1 > GET https:\/\/reqres.in\/api\/users?page=2\n1 > Host: reqres.in\n1 > Connection: Keep-Alive\n1 > User-Agent: Apache-HttpClient\/4.5.13 (Java\/18)\n1 > Accept-Encoding: gzip,deflate\n\n\n16:39:43.554 response time in milliseconds: 359\n1 < 200\n1 < Date: Sat, 16 Apr 2022 15:39:45 GMT\n1 < Content-Type: application\/json; charset=utf-8\n1 < Transfer-Encoding: chunked\n1 < Connection: keep-alive\n1 < X-Powered-By: Express\n1 < Access-Control-Allow-Origin: *\n1 < Etag: W\/\"406-ut0vzoCuidvyMf8arZpMpJ6ZRDw\"\n1 < Via: 1.1 vegur\n1 < Cache-Control: max-age=14400\n1 < CF-Cache-Status: HIT\n1 < Age: 4570\n1 < Expect-CT: max-age=604800, report-uri=\"https:\/\/report-uri.cloudflare.com\/cdn-cgi\/beacon\/expect-ct\"\n1 < Report-To: {\"endpoints\":[{\"url\":\"https:\\\/\\\/a.nel.cloudflare.com\\\/report\\\/v3?s=o8lv97LunUskMuNYG299vJOdNM5fW9NW7VsOdmKPIpMuFpe1kO5%2FsPXYR8HcEaYlM75e9JlEPh3VfEk6Tdk88oChekdmi86viVAzbFLjyUe1bSgVJQglG%2BKTPQo%3D\"}],\"group\":\"cf-nel\",\"max_age\":604800}\n1 < NEL: {\"success_fraction\":0,\"report_to\":\"cf-nel\",\"max_age\":604800}\n1 < Vary: Accept-Encoding\n1 < Server: cloudflare\n1 < CF-RAY: 6fce03f9c91b54d6-MAN\n1 < alt-svc: h3=\":443\"; ma=86400, h3-29=\":443\"; ma=86400\n{\"page\":2,\"per_page\":6,\"total\":12,\"total_pages\":2,\"data\":[{\"id\":7,\"email\":\"michael.lawson@reqres.in\",\"first_name\":\"Michael\",\"last_name\":\"Lawson\",\"avatar\":\"https:\/\/reqres.in\/img\/faces\/7-image.jpg\"},{\"id\":8,\"email\":\"lindsay.ferguson@reqres.in\",\"first_name\":\"Lindsay\",\"last_name\":\"Ferguson\",\"avatar\":\"https:\/\/reqres.in\/img\/faces\/8-image.jpg\"},{\"id\":9,\"email\":\"tobias.funke@reqres.in\",\"first_name\":\"Tobias\",\"last_name\":\"Funke\",\"avatar\":\"https:\/\/reqres.in\/img\/faces\/9-image.jpg\"},{\"id\":10,\"email\":\"byron.fields@reqres.in\",\"first_name\":\"Byron\",\"last_name\":\"Fields\",\"avatar\":\"https:\/\/reqres.in\/img\/faces\/10-image.jpg\"},{\"id\":11,\"email\":\"george.edwards@reqres.in\",\"first_name\":\"George\",\"last_name\":\"Edwards\",\"avatar\":\"https:\/\/reqres.in\/img\/faces\/11-image.jpg\"},{\"id\":12,\"email\":\"rachel.howell@reqres.in\",\"first_name\":\"Rachel\",\"last_name\":\"Howell\",\"avatar\":\"https:\/\/reqres.in\/img\/faces\/12-image.jpg\"}],\"support\":{\"url\":\"https:\/\/reqres.in\/#support-heading\",\"text\":\"To keep ReqRes free, contributions towards server costs are appreciated!\"}}\n"},{"result":{"nanos":5138600,"millis":5.1386,"status":"passed"},"step":{"line":7,"prefix":"Then","index":2,"text":"status 200"}}],"line":4,"description":"","durationMillis":1070.5582,"failed":false,"tags":["apiTest"],"executorName":"main","name":"Sample get API","startTime":1650123582511,"refId":"[1:4]","endTime":1650123583604,"exampleIndex":-1}],"callDepth":0,"name":"API karate test demo","description":"","resultDate":"2022-04-16 04:39:43 pm","durationMillis":1070.5582,"passedCount":1}